{
  "project_info": {
    "project_number": "271470061710",
    "firebase_url": "https://eshop-a5820.firebaseio.com",
    "project_id": "eshop-a5820",
    "storage_bucket": "eshop-a5820.appspot.com"
  },
  "client": [
    {
      "client_info": {
        "mobilesdk_app_id": "1:271470061710:android:ece58bae9f01d4af0b01df",
        "android_client_info": {
          "package_name": "com.example.eshop"
        }
      },
      "oauth_client": [
        {
          "client_id": "271470061710-qlnod2ddp6t1ildvdh30gn09vg9nuv96.apps.googleusercontent.com",
          "client_type": 1,
          "android_info": {
            "package_name": "com.example.eshop",
            "certificate_hash": "c7ddefbbaaf12f6a965cb99dcbb1fff0fc40aa03"
          }
        },
        {
          "client_id": "271470061710-7u72nr5vamkvr6iub0v0d674or4h4nl4.apps.googleusercontent.com",
          "client_type": 3
        }
      ],
      "api_key": [
        {
          "current_key": "AIzaSyDb-Dx5xOo4Axx3MtxzcBeLA2lTJ-rh4T8"
        }
      ],
      "services": {
        "appinvite_service": {
          "other_platform_oauth_client": [
            {
              "client_id": "271470061710-7u72nr5vamkvr6iub0v0d674or4h4nl4.apps.googleusercontent.com",
              "client_type": 3
            }
          ]
        }
      }
    }
  ],
  "configuration_version": "1"
}